{
  "version": "v4",
  "repo": "borisyankov/DefinitelyTyped",
  "ref": "master",
  "path": "typings",
  "bundle": "typings/tsd.d.ts",
  "installed": {
    "node/node.d.ts": {
      "commit": "715df764419937a75a25dcd76bfc954157bc7b96"
    },
    "express/express.d.ts": {
      "commit": "fb2b3b1e068c9ff7d8f9b0851c08d37d96c95c38"
    },
    "serve-static/serve-static.d.ts": {
      "commit": "fb2b3b1e068c9ff7d8f9b0851c08d37d96c95c38"
    },
    "mime/mime.d.ts": {
      "commit": "fb2b3b1e068c9ff7d8f9b0851c08d37d96c95c38"
    },
    "passport/passport.d.ts": {
      "commit": "fb2b3b1e068c9ff7d8f9b0851c08d37d96c95c38"
    },
    "es6-promise/es6-promise.d.ts": {
      "commit": "fb2b3b1e068c9ff7d8f9b0851c08d37d96c95c38"
    },
    "passport-local/passport-local.d.ts": {
      "commit": "fb2b3b1e068c9ff7d8f9b0851c08d37d96c95c38"
    },
    "assertion-error/assertion-error.d.ts": {
      "commit": "fb2b3b1e068c9ff7d8f9b0851c08d37d96c95c38"
    },
    "chai/chai.d.ts": {
      "commit": "fb2b3b1e068c9ff7d8f9b0851c08d37d96c95c38"
    },
    "jsonwebtoken/jsonwebtoken.d.ts": {
      "commit": "715df764419937a75a25dcd76bfc954157bc7b96"
    },
    "mocha/mocha.d.ts": {
      "commit": "78d36dd49b6b55b9fdfe61776a12bf05c8b07777"
    },
    "lodash/lodash.d.ts": {
      "commit": "70bf7e2bfeb0d5b1b651ef3219bcc65c8eec117e"
    }
  }
}
